<?xml version="1.0" encoding="UTF-8" standalone="no"?>
<svg
   xmlns:dc="http://purl.org/dc/elements/1.1/"
   xmlns:cc="http://creativecommons.org/ns#"
   xmlns:rdf="http://www.w3.org/1999/02/22-rdf-syntax-ns#"
   xmlns:svg="http://www.w3.org/2000/svg"
   xmlns="http://www.w3.org/2000/svg"
   xmlns:xlink="http://www.w3.org/1999/xlink"
   xmlns:sodipodi="http://sodipodi.sourceforge.net/DTD/sodipodi-0.dtd"
   xmlns:inkscape="http://www.inkscape.org/namespaces/inkscape"
   width="24.534454"
   height="41.075233"
   viewBox="0 0 24.534456 41.075236"
   version="1.1"
   id="svg855"
   inkscape:version="1.0.2-2 (e86c870879, 2021-01-15)"
   sodipodi:docname="marker.svg">
  <defs
     id="defs849">
    <linearGradient
       inkscape:collect="always"
       id="linearGradient887">
      <stop
         style="stop-color:#ffffff;stop-opacity:0"
         offset="0"
         id="stop883" />
      <stop
         style="stop-color:#ffffff;stop-opacity:0.5"
         offset="1"
         id="stop885" />
    </linearGradient>
    <linearGradient
       inkscape:collect="always"
       id="linearGradient2274">
      <stop
         style="stop-color:#ffffff;stop-opacity:0"
         offset="0"
         id="stop2270" />
      <stop
         style="stop-color:#ffffff;stop-opacity:0.34939757"
         offset="1"
         id="stop2272" />
    </linearGradient>
    <linearGradient
       inkscape:collect="always"
       xlink:href="#linearGradient2274"
       id="linearGradient2276"
       x1="39.865089"
       y1="287.85211"
       x2="163.92232"
       y2="31.166473"
       gradientUnits="userSpaceOnUse"
       gradientTransform="matrix(0.15518237,0,0,0.15518237,20.085934,16.307723)" />
    <clipPath
       clipPathUnits="userSpaceOnUse"
       id="clipPath881">
      <path
         id="path883"
         style="display:inline;fill:none;fill-opacity:1;stroke:#000000;stroke-width:0;stroke-miterlimit:4;stroke-dasharray:none;stroke-opacity:0.35743"
         d="m 48.542694,31.803246 c 0,6.775001 -12.288407,28.808004 -12.267227,28.808004 0.01977,0 -12.267227,-22.033003 -12.267227,-28.808004 0,-6.775002 5.492225,-12.267227 12.267227,-12.267227 6.775003,0 12.267227,5.492225 12.267227,12.267227 z"
         sodipodi:nodetypes="sssss"
         inkscape:label="markerrand buiten zwart clip" />
    </clipPath>
    <clipPath
       clipPathUnits="userSpaceOnUse"
       id="clipPath887">
      <path
         id="path889"
         style="display:inline;mix-blend-mode:normal;fill:none;fill-opacity:1;stroke:#ffffff;stroke-width:0;stroke-miterlimit:4;stroke-dasharray:none;stroke-opacity:0.305221"
         d="m 48.542694,31.803246 c 0,6.775001 -12.288407,28.808004 -12.267227,28.808004 0.01977,0 -12.267227,-22.033003 -12.267227,-28.808004 0,-6.775002 5.492225,-12.267227 12.267227,-12.267227 6.775003,0 12.267227,5.492225 12.267227,12.267227 z"
         sodipodi:nodetypes="sssss"
         inkscape:label="markerrand binnen wit clip" />
    </clipPath>
    <linearGradient
       inkscape:collect="always"
       xlink:href="#linearGradient887"
       id="linearGradient891"
       gradientUnits="userSpaceOnUse"
       gradientTransform="matrix(0.15518237,0,0,0.15518237,20.085934,16.307723)"
       x1="39.865089"
       y1="287.85211"
       x2="166.33884"
       y2="27.541706" />
    <clipPath
       clipPathUnits="userSpaceOnUse"
       id="clipPath915">
      <circle
         style="display:inline;mix-blend-mode:normal;fill:none;fill-opacity:1;stroke:none;stroke-width:0;stroke-miterlimit:4;stroke-dasharray:none;stroke-opacity:0"
         id="circle917"
         cx="36.275558"
         cy="31.804804"
         r="6.0146875"
         inkscape:label="oog buiten wit clip" />
    </clipPath>
  </defs>
  <sodipodi:namedview
     id="base"
     pagecolor="#ffffff"
     bordercolor="#666666"
     borderopacity="1.0"
     inkscape:pageopacity="0.0"
     inkscape:pageshadow="2"
     inkscape:zoom="16"
     inkscape:cx="19.195143"
     inkscape:cy="16.555906"
     inkscape:document-units="px"
     inkscape:current-layer="layer1"
     inkscape:document-rotation="0"
     showgrid="false"
     inkscape:window-width="1920"
     inkscape:window-height="1137"
     inkscape:window-x="1912"
     inkscape:window-y="-8"
     inkscape:window-maximized="1"
     scale-x="1"
     fit-margin-top="0"
     fit-margin-left="0"
     fit-margin-right="0"
     fit-margin-bottom="0"
     units="px"
     lock-margins="false"
     inkscape:pagecheckerboard="false" />
  <metadata
     id="metadata852">
    <rdf:RDF>
      <cc:Work
         rdf:about="">
        <dc:format>image/svg+xml</dc:format>
        <dc:type
           rdf:resource="http://purl.org/dc/dcmitype/StillImage" />
        <dc:title />
      </cc:Work>
    </rdf:RDF>
  </metadata>
  <g
     inkscape:label="Laag 1"
     id="layer1"
     transform="translate(-24.008239,-19.536018)"
     sodipodi:insensitive="true"
     inkscape:groupmode="layer">
    <path
       style="display:none;opacity:0;fill:none;stroke:#000000;stroke-width:0.264583px;stroke-linecap:butt;stroke-linejoin:miter;stroke-opacity:1"
       d="M -0.37797618,99.861316 H 209.39881"
       id="path1420"
       inkscape:label="richtlijn hori" />
    <path
       style="display:none;opacity:0;fill:none;stroke:#000000;stroke-width:0.264583px;stroke-linecap:butt;stroke-linejoin:miter;stroke-opacity:1"
       d="M 104.32143,0 V 295.95535"
       id="path1422"
       inkscape:label="richtlijn verti" />
    <path
       id="path1424"
       style="display:inline;fill:#0041ff;fill-opacity:1;stroke:#ffffff;stroke-width:0;stroke-miterlimit:4;stroke-dasharray:none;stroke-opacity:0.25"
       d="m 48.542694,31.803246 c 0,6.775001 -12.288407,28.808004 -12.267227,28.808004 0.01977,0 -12.267227,-22.033003 -12.267227,-28.808004 0,-6.775002 5.492225,-12.267227 12.267227,-12.267227 6.775003,0 12.267227,5.492225 12.267227,12.267227 z"
       sodipodi:nodetypes="sssss"
       inkscape:label="markervulkleur" />
    <path
       id="path865"
       style="display:inline;fill:url(#linearGradient891);fill-opacity:1;stroke:#000000;stroke-width:0;stroke-miterlimit:4;stroke-dasharray:none;stroke-opacity:0.35743"
       d="m 48.542694,31.803246 c 0,6.775001 -12.288407,28.808004 -12.267227,28.808004 0.01977,0 -12.267227,-22.033003 -12.267227,-28.808004 0,-6.775002 5.492225,-12.267227 12.267227,-12.267227 6.775003,0 12.267227,5.492225 12.267227,12.267227 z"
       sodipodi:nodetypes="sssss"
       inkscape:label="markergradient" />
    <path
       id="path2268"
       style="display:inline;mix-blend-mode:overlay;fill:none;fill-opacity:1;stroke:#000000;stroke-width:1.566;stroke-miterlimit:4;stroke-dasharray:none;stroke-opacity:0.502008"
       d="m 48.542694,31.803246 c 0,6.775001 -12.288407,28.808004 -12.267227,28.808004 0.01977,0 -12.267227,-22.033003 -12.267227,-28.808004 0,-6.775002 5.492225,-12.267227 12.267227,-12.267227 6.775003,0 12.267227,5.492225 12.267227,12.267227 z"
       sodipodi:nodetypes="sssss"
       inkscape:label="markerrand buiten zwart"
       clip-path="url(#clipPath881)" />
    <path
       id="path849"
       style="display:inline;mix-blend-mode:overlay;fill:none;fill-opacity:1;stroke:#ffffff;stroke-width:3.366;stroke-miterlimit:4;stroke-dasharray:none;stroke-opacity:0.305221"
       d="m 48.542694,31.803246 c 0,6.775001 -12.288407,28.808004 -12.267227,28.808004 0.01977,0 -12.267227,-22.033003 -12.267227,-28.808004 0,-6.775002 5.492225,-12.267227 12.267227,-12.267227 6.775003,0 12.267227,5.492225 12.267227,12.267227 z"
       sodipodi:nodetypes="sssss"
       inkscape:label="markerrand binnen wit"
       clip-path="url(#clipPath887)" />
    <circle
       style="display:inline;mix-blend-mode:overlay;fill:#ffffff;stroke:#000000;stroke-width:2.059;stroke-miterlimit:4;stroke-dasharray:none;stroke-opacity:0.51004"
       id="circle847"
       cx="36.275558"
       cy="31.804804"
       r="4.2566299"
       inkscape:label="oog binnen zwart" />
    <circle
       style="display:inline;mix-blend-mode:overlay;fill:#ffffff;stroke:#ffffff;stroke-width:3.542;stroke-miterlimit:4;stroke-dasharray:none;stroke-opacity:0.502008"
       id="path2035"
       cx="36.275558"
       cy="31.804804"
       r="4.2021875"
       inkscape:label="oog buiten wit (clip voor firefox)"
       clip-path="url(#clipPath915)" />
    <circle
       style="display:inline;mix-blend-mode:normal;fill:#ffffff;stroke:#000000;stroke-width:0;stroke-miterlimit:4;stroke-dasharray:none;stroke-opacity:0.51004"
       id="circle899"
       cx="36.275558"
       cy="31.804804"
       r="4.2566299"
       inkscape:label="oog binnen binnen" />
    <circle
       style="display:inline;mix-blend-mode:normal;fill:#ffffff;fill-opacity:1;stroke:#ffffff;stroke-width:0.743936;stroke-miterlimit:4;stroke-dasharray:none;stroke-opacity:0.51004"
       id="circle889"
       cx="36.275558"
       cy="31.804804"
       r="3.5126126"
       inkscape:label="oog binnenste" />
  </g>
</svg>
